…
- Use the rep_sample_n() function from the oilabs package to create a data frame by sampling the entire disc data frame 5 times.
- Within each of the 5 replicates of the original data, shuffle the promote variable to break any relationship between promotion and gender.
- Building on the previous data frame, group by replicate and sex then find the proportion of individuals promoted in each grouped category.
- Continuing, find the difference in proportion of "promoted" across sex grouped by replicate.


```r
# Sample the entire data frame 5 times
disc %>%
  rep_sample_n(size = nrow(disc), reps = 5) 
```

```
## Source: local data frame [240 x 3]
## Groups: replicate [5]
## 
##    replicate      promote    sex
## *      <int>       <fctr> <fctr>
## 1          1 not_promoted female
## 2          1     promoted female
## 3          1     promoted   male
## 4          1     promoted female
## 5          1     promoted   male
## 6          1     promoted   male
## 7          1     promoted   male
## 8          1     promoted   male
## 9          1     promoted female
## 10         1 not_promoted   male
## # ... with 230 more rows
```

```r
# Shuffle the promote variable within replicate
disc %>%
  rep_sample_n(size = nrow(disc), reps = 5) %>%
  mutate(prom_perm = sample(promote)) 
```

```
## Source: local data frame [240 x 4]
## Groups: replicate [5]
## 
##    replicate      promote    sex    prom_perm
##        <int>       <fctr> <fctr>       <fctr>
## 1          1     promoted   male not_promoted
## 2          1     promoted female     promoted
## 3          1     promoted   male     promoted
## 4          1     promoted female     promoted
## 5          1     promoted   male     promoted
## 6          1     promoted   male not_promoted
## 7          1     promoted   male     promoted
## 8          1 not_promoted female     promoted
## 9          1     promoted   male     promoted
## 10         1     promoted   male     promoted
## # ... with 230 more rows
```
…
